<svg width="40" height="40" viewBox="0 0 40 40" fill="none" xmlns="http://www.w3.org/2000/svg">
<circle cx="20" cy="20" r="20" fill="#0078B8"/>
<path d="M21.2626 30L18.7374 30L18.7374 14.8485L11.7929 21.7929L10 20L20 10L30 20L28.2071 21.7929L21.2626 14.8485L21.2626 30Z" fill="white"/>
</svg>
